Data Science for Psychologists - 1 Getting Started
…
1.5.3.3 Data Frames (and Tibbles)

In the real world, if you tested IQs you’d typically have this data stored in a table somewhere prior to reading it into R. So let’s pair the data together into a table in R. One way to do this is to create a data frame. However, if you use the tidyverse set of packages, which we do here, you have access to tibbles. These are just data frames with some sensible defaults like ensuring that R doesn’t convert vectors to different data structures when you subset your table.

Let’s make a tibble from our IQ data from earlier. Notice that we have to subset the participant_id object to be the same length (100 items) as the other objects.

iq_data <- tibble(
  participant = participant_id[1:100],
  pet = pet_owned,
  iq = iq_score
)
iq_data

# A tibble: 100 × 3
   participant pet      iq
         <dbl> <chr> <dbl>
 1           1 dog   120. 
 2           2 cat   100. 
 3           3 dog   106. 
 4           4 cat   100. 
 5           5 dog    99.4
 6           6 cat   106. 
 7           7 cat    69.3
 8           8 dog    88.3
 9           9 cat   101. 
10          10 dog   108. 
# … with 90 more rows

Tibbles are nice to use in that they show you the data type of each column, and by default print the first 10 rows of data only when you print the table. if you want more rows of data, you can ask for it explicitly. Here, n defines the number of rows, while width defines the number of columns. We can set this to Inf or infinity, to ensure all columns are printed.

print(iq_data, n = 12, width = Inf)

# A tibble: 100 × 3
   participant pet      iq
         <dbl> <chr> <dbl>
 1           1 dog   120. 
 2           2 cat   100. 
 3           3 dog   106. 
 4           4 cat   100. 
 5           5 dog    99.4
 6           6 cat   106. 
 7           7 cat    69.3
 8           8 dog    88.3
 9           9 cat   101. 
10          10 dog   108. 
11          11 dog    79.8
12          12 cat   106. 
# … with 88 more rows
…
set.seed(1892) # set the random seed

operating_system <- sample(
  c("windows", "mac", "linux"), 
  size = 100, 
  replace = TRUE,
  prob = c(0.5, 0.3, 0.2)
)

In the iq_data data set, we can add the new column using the usual assignment operator.

iq_data$operating_system <- operating_system # add new column
iq_data

# A tibble: 100 × 4
   participant pet      iq operating_system
         <dbl> <chr> <dbl> <chr>           
 1           1 dog   120.  linux           
 2           2 cat   100.  mac             
 3           3 dog   106.  mac             
 4           4 cat   100.  windows         
 5           5 dog    99.4 windows         
 6           6 cat   106.  windows         
 7           7 cat    69.3 mac             
 8           8 dog    88.3 mac             
 9           9 cat   101.  mac             
10          10 dog   108.  linux           
# … with 90 more rows

Note that you can rename the column to anything you like. But, for consistency, I like to keep the same name as the object which acts as the data source.

Finally, we can remove the new column (and any column) by setting the entire column to nothing (NULL), like so:

iq_data$operating_system <- NULL # remove the column
iq_data

# A tibble: 100 × 3
   participant pet      iq
         <dbl> <chr> <dbl>
 1           1 dog   120. 
 2           2 cat   100. 
 3           3 dog   106. 
 4           4 cat   100. 
 5           5 dog    99.4
 6           6 cat   106. 
 7           7 cat    69.3
 8           8 dog    88.3
 9           9 cat   101. 
10          10 dog   108. 
# … with 90 more rows
…
iq is NA (i.e. unknown)

Then we assign this list of values to the data frame in the 101st row.

We do this like so:

iq_data[101, ] <- list(
  participant = 101, 
  pet = "dog",
  iq = NA
)

iq_data

# A tibble: 101 × 3
   participant pet      iq
         <dbl> <chr> <dbl>
 1           1 dog   120. 
 2           2 cat   100. 
 3           3 dog   106. 
 4           4 cat   100. 
 5           5 dog    99.4
 6           6 cat   106. 
 7           7 cat    69.3
 8           8 dog    88.3
 9           9 cat   101. 
10          10 dog   108. 
# … with 91 more rows
…
