Data Science for Psychologists - 2 Creating Graphs
…
Beyond these basic ways to define your plot, ggplot2 comes with various themes that set sensible defaults for many parameters that define the look of the plot. We will explore these and how to customise them.

2.2 Building a Plot, Layer by Layer

To get started, we’ll need a data set. R itself comes with a few data sets build in that we can use for examples. However, there are more fun data sets to use in the packages we’ve already installed. We’ll use the starwars data set from dplyr.

As always, we’ll first load the tidyverse.

library(tidyverse)

Once loaded, we can load up the starwars data set from the dplyr library (one of the libraries loaded up when using library(tidyverse). Let’s take a look at it.

starwars

# A tibble: 87 × 14
   name        height  mass hair_…¹ skin_…² eye_c…³ birth…⁴ sex   gender homew…⁵
   <chr>        <int> <dbl> <chr>   <chr>   <chr>     <dbl> <chr> <chr>  <chr>  
 1 Luke Skywa…    172    77 blond   fair    blue       19   male  mascu… Tatooi…
 2 C-3PO          167    75 <NA>    gold    yellow    112   none  mascu… Tatooi…
 3 R2-D2           96    32 <NA>    white,… red        33   none  mascu… Naboo  
 4 Darth Vader    202   136 none    white   yellow     41.9 male  mascu… Tatooi…
 5 Leia Organa    150    49 brown   light   brown      19   fema… femin… Aldera…
 6 Owen Lars      178   120 brown,… light   blue       52   male  mascu… Tatooi…
 7 Beru White…    165    75 brown   light   blue       47   fema… femin… Tatooi…
 8 R5-D4           97    32 <NA>    white,… red        NA   none  mascu… Tatooi…
 9 Biggs Dark…    183    84 black   light   brown      24   male  mascu… Tatooi…
10 Obi-Wan Ke…    182    77 auburn… fair    blue-g…    57   male  mascu… Stewjon
# … with 77 more rows, 4 more variables: species <chr>, films <list>,
#   vehicles <list>, starships <list>, and abbreviated variable names
#   ¹​hair_color, ²​skin_color, ³​eye_color, ⁴​birth_year, ⁵​homeworld
…
